{
    "type": "FeatureCollection",
    "features": [
      {
        "type": "Feature",
        "properties": {
          "stroke": "#555555",
          "stroke-width": 2,
          "stroke-opacity": 1,
          "fill": "#555555",
          "fill-opacity": 0.5,
          "Localidad": "Teusaquillo",
          "Lugar": "Movistar arena",
          "Ambito": "Recreacion, deporte y entretenimiento"
        },
        "geometry": {
          "type": "Polygon",
          "coordinates": [
            [
              [
                -74.07808542251587,
                4.650460011912999
              ],
              [
                -74.07824635505676,
                4.648492402360517
              ],
              [
                -74.07687306404112,
                4.6483533862603945
              ],
              [
                -74.07676577568054,
                4.6489629181881815
              ],
              [
                -74.07601475715637,
                4.649540369001801
              ],
              [
                -74.07663702964783,
                4.650342383235499
              ],
              [
                -74.07725930213928,
                4.650802204317631
              ],
              [
                -74.07784938812256,
                4.650802204317631
              ],
              [
                -74.07808542251587,
                4.650460011912999
              ]
            ]
          ]
        }
      },
      {
        "type": "Feature",
        "properties": {
          "stroke": "#555555",
          "stroke-width": 2,
          "stroke-opacity": 1,
          "fill": "#555555",
          "fill-opacity": 0.5,
          "Loclidad": "Teusaquillo",
          "Lugar": "Estadio el Campin",
          "Ambito": "Recreacion y deporte"
        },
        "geometry": {
          "type": "Polygon",
          "coordinates": [
            [
              [
                -74.07831072807312,
                4.647198482214549
              ],
              [
                -74.07846093177795,
                4.644856587646338
              ],
              [
                -74.07696962356567,
                4.644749651635596
              ],
              [
                -74.07562851905823,
                4.646011495528874
              ],
              [
                -74.07689452171326,
                4.647251950036224
              ],
              [
                -74.07689452171326,
                4.64704877229226
              ],
              [
                -74.07831072807312,
                4.647198482214549
              ]
            ]
          ]
        }
      },
      {
        "type": "Feature",
        "properties": {
          "stroke": "#555555",
          "stroke-width": 2,
          "stroke-opacity": 1,
          "fill": "#555555",
          "fill-opacity": 0.5,
          "Localidad": "Barrios Unidos",
          "Lugar": "Chorizos el mono",
          "Ambito": "Comida"
        },
        "geometry": {
          "type": "Polygon",
          "coordinates": [
            [
              [
                -74.07549440860748,
                4.651716498833191
              ],
              [
                -74.07540321350098,
                4.651681744969793
              ],
              [
                -74.07534420490265,
                4.65191165511114
              ],
              [
                -74.07543271780014,
                4.6519276953507545
              ],
              [
                -74.07549440860748,
                4.651716498833191
              ]
            ]
          ]
        }
      },
      {
        "type": "Feature",
        "properties": {
          "stroke": "#555555",
          "stroke-width": 2,
          "stroke-opacity": 1,
          "fill": "#555555",
          "fill-opacity": 0.5,
          "Localidad": "Barrios unidos",
          "lugar": "Parque Benjamín Herrera",
          "Ambito": "Recreacion y deporte"
        },
        "geometry": {
          "type": "Polygon",
          "coordinates": [
            [
              [
                -74.0757143497467,
                4.653513003896804
              ],
              [
                -74.07483458518982,
                4.653357948581002
              ],
              [
                -74.0746521949768,
                4.654202732301434
              ],
              [
                -74.07561242580414,
                4.6543577874311355
              ],
              [
                -74.0757143497467,
                4.653513003896804
              ]
            ]
          ]
        }
      }
    ]
  }